Lecture 03
…
---

# Attribute data operations: selecting (choose fields)

```r
*world
```

```
## Simple feature collection with 177 features and 10 fields
## Geometry type: MULTIPOLYGON
## Dimension:     XY
## Bounding box:  xmin: -180 ymin: -89.9 xmax: 180 ymax: 83.64513
## Geodetic CRS:  WGS 84
## # A tibble: 177 × 11
##    iso_a2 name_long       continent region_un subregion type  area_km2
##  * <chr>  <chr>           <chr>     <chr>     <chr>     <chr>    <dbl>
##  1 FJ     Fiji            Oceania   Oceania   Melanesia Sove…   1.93e4
##  2 TZ     Tanzania        Africa    Africa    Eastern … Sove…   9.33e5
##  3 EH     Western Sahara  Africa    Africa    Northern… Inde…   9.63e4
##  4 CA     Canada          North Am… Americas  Northern… Sove…   1.00e7
##  5 US     United States   North Am… Americas  Northern… Coun…   9.51e6
##  6 KZ     Kazakhstan      Asia      Asia      Central … Sove…   2.73e6
##  7 UZ     Uzbekistan      Asia      Asia      Central … Sove…   4.61e5
##  8 PG     Papua New Guin… Oceania   Oceania   Melanesia Sove…   4.65e5
##  9 ID     Indonesia       Asia      Asia      South-Ea… Sove…   1.82e6
## 10 AR     Argentina       South Am… Americas  South Am… Sove…   2.78e6
## # … with 167 more rows, and 4 more variables: pop <dbl>,
## #   lifeExp <dbl>, gdpPercap <dbl>, geom <MULTIPOLYGON [°]>
```
…
# Attribute data operations: selecting (choose fields)

```r
*world %>% select(name_long, continent)
```

```
## Simple feature collection with 177 features and 2 fields
## Geometry type: MULTIPOLYGON
## Dimension:     XY
## Bounding box:  xmin: -180 ymin: -89.9 xmax: 180 ymax: 83.64513
## Geodetic CRS:  WGS 84
## # A tibble: 177 × 3
##    name_long        continent                                     geom
##    <chr>            <chr>                           <MULTIPOLYGON [°]>
##  1 Fiji             Oceania       (((-180 -16.55522, -179.9174 -16.50…
##  2 Tanzania         Africa        (((33.90371 -0.95, 31.86617 -1.0273…
##  3 Western Sahara   Africa        (((-8.66559 27.65643, -8.817828 27.…
##  4 Canada           North America (((-132.71 54.04001, -133.18 54.169…
##  5 United States    North America (((-171.7317 63.78252, -171.7911 63…
##  6 Kazakhstan       Asia          (((87.35997 49.21498, 86.82936 49.8…
##  7 Uzbekistan       Asia          (((55.96819 41.30864, 57.09639 41.3…
##  8 Papua New Guinea Oceania       (((141.0002 -2.600151, 141.0171 -5.…
##  9 Indonesia        Asia          (((104.37 -1.084843, 104.0108 -1.05…
## 10 Argentina        South America (((-68.63401 -52.63637, -68.63335 -…
## # … with 167 more rows
```
…
---

# Attribute data operations: aggregating (based on attributes)

```r
*world %>% select(name_long, continent, pop)
```

```
## Simple feature collection with 177 features and 3 fields
## Geometry type: MULTIPOLYGON
## Dimension:     XY
## Bounding box:  xmin: -180 ymin: -89.9 xmax: 180 ymax: 83.64513
## Geodetic CRS:  WGS 84
## # A tibble: 177 × 4
##    name_long        continent           pop                       geom
##    <chr>            <chr>             <dbl>         <MULTIPOLYGON [°]>
##  1 Fiji             Oceania          885806 (((-180 -16.55522, -179.9…
##  2 Tanzania         Africa         52234869 (((33.90371 -0.95, 31.866…
##  3 Western Sahara   Africa               NA (((-8.66559 27.65643, -8.…
##  4 Canada           North America  35535348 (((-132.71 54.04001, -133…
##  5 United States    North America 318622525 (((-171.7317 63.78252, -1…
##  6 Kazakhstan       Asia           17288285 (((87.35997 49.21498, 86.…
##  7 Uzbekistan       Asia           30757700 (((55.96819 41.30864, 57.…
##  8 Papua New Guinea Oceania         7755785 (((141.0002 -2.600151, 14…
##  9 Indonesia        Asia          255131116 (((104.37 -1.084843, 104.…
## 10 Argentina        South America  42981515 (((-68.63401 -52.63637, -…
## # … with 167 more rows
```
…
